\contentsline {subsection}{\numberline {0.1}Chana Masala with coconut cream}{2}
\contentsline {subsection}{\numberline {0.2}Pressure Cooker Dahl}{3}
\contentsline {subsection}{\numberline {0.3}Buttermilk Pancakes}{4}
\contentsline {subsection}{\numberline {0.4}Peanut butter snickerdoodles}{5}
\contentsline {subsection}{\numberline {0.5}Seitan sausages}{6}
\contentsline {subsection}{\numberline {0.6}Mock duck}{7}
\contentsline {section}{\numberline {1}Reference}{8}
\contentsline {subsection}{\numberline {1.1}Pressure cooking times}{8}
\contentsline {subsubsection}{\numberline {1.1.1}Beans}{8}
\contentsline {subsubsection}{\numberline {1.1.2}Vegetables}{9}
\contentsline {subsubsection}{\numberline {1.1.3}Fruit}{10}
\contentsline {subsubsection}{\numberline {1.1.4}Grains}{10}
\contentsline {subsubsection}{\numberline {1.1.5}Rice}{10}
